 05/14/16 20:47:14 Created Finstall.log 
 05/14/16 20:47:14 Installing/updating from /usr/local/ferret/fer_executables.tar.gz 
 05/14/16 20:47:15 Renamed existing lib/toolsUI.jar to lib/toolsUI.jar.old 
 05/14/16 20:47:15 Renamed existing lib/threddsBrowser.jar to lib/threddsBrowser.jar.old 
 05/14/16 20:47:15 Renamed existing lib/toolsUI-4.1.jar to lib/toolsUI-4.1.jar.old 
 05/14/16 20:47:15 Renamed existing ppl/fonts/fnt29.sym to ppl/fonts/fnt29.sym.old 
 05/14/16 20:47:15 Renamed existing ppl/fonts/fnt31.chr to ppl/fonts/fnt31.chr.old 
 05/14/16 20:47:15 Renamed existing ppl/fonts/fnt21.sym to ppl/fonts/fnt21.sym.old 
 05/14/16 20:47:15 Renamed existing ppl/fonts/fnt25.sym to ppl/fonts/fnt25.sym.old 
 05/14/16 20:47:15 Renamed existing ppl/fonts/fnt03.chr to ppl/fonts/fnt03.chr.old 
 05/14/16 20:47:15 Renamed existing ppl/fonts/fnt14.chr to ppl/fonts/fnt14.chr.old 
 05/14/16 20:47:15 Renamed existing ppl/fonts/fnt32.chr to ppl/fonts/fnt32.chr.old 
 05/14/16 20:47:15 Renamed existing ppl/fonts/fnt09.chr to ppl/fonts/fnt09.chr.old 
 05/14/16 20:47:15 Renamed existing ppl/fonts/fnt28.sym to ppl/fonts/fnt28.sym.old 
 05/14/16 20:47:15 Renamed existing ppl/fonts/fnt16.chr to ppl/fonts/fnt16.chr.old 
 05/14/16 20:47:15 Renamed existing ppl/fonts/fnt20.sym to ppl/fonts/fnt20.sym.old 
 05/14/16 20:47:15 Renamed existing ppl/fonts/fnt33.sym to ppl/fonts/fnt33.sym.old 
 05/14/16 20:47:15 Renamed existing ppl/fonts/fnt13.chr to ppl/fonts/fnt13.chr.old 
 05/14/16 20:47:15 Renamed existing ppl/fonts/fnt30.sym to ppl/fonts/fnt30.sym.old 
 05/14/16 20:47:15 Renamed existing ppl/fonts/fnt02.chr to ppl/fonts/fnt02.chr.old 
 05/14/16 20:47:15 Renamed existing ppl/fonts/fnt01.chr to ppl/fonts/fnt01.chr.old 
 05/14/16 20:47:15 Renamed existing ppl/fonts/fnt27.sym to ppl/fonts/fnt27.sym.old 
 05/14/16 20:47:15 Renamed existing ppl/fonts/fnt15.chr to ppl/fonts/fnt15.chr.old 
 05/14/16 20:47:15 Renamed existing ppl/fonts/fnt06.chr to ppl/fonts/fnt06.chr.old 
 05/14/16 20:47:15 Renamed existing ppl/fonts/fondat.dat to ppl/fonts/fondat.dat.old 
 05/14/16 20:47:15 Renamed existing ppl/fonts/fnt26.sym to ppl/fonts/fnt26.sym.old 
 05/14/16 20:47:15 Renamed existing ppl/fonts/fnt12.chr to ppl/fonts/fnt12.chr.old 
 05/14/16 20:47:15 Renamed existing ppl/fonts/fnt11.chr to ppl/fonts/fnt11.chr.old 
 05/14/16 20:47:15 Renamed existing ppl/fonts/fnt07.chr to ppl/fonts/fnt07.chr.old 
 05/14/16 20:47:15 Renamed existing ppl/fonts/fnt18.chr to ppl/fonts/fnt18.chr.old 
 05/14/16 20:47:15 Renamed existing ppl/fonts/fnt04.chr to ppl/fonts/fnt04.chr.old 
 05/14/16 20:47:15 Renamed existing ppl/fonts/fnt19.chr to ppl/fonts/fnt19.chr.old 
 05/14/16 20:47:15 Renamed existing ppl/fonts/fnt08.chr to ppl/fonts/fnt08.chr.old 
 05/14/16 20:47:15 Renamed existing ppl/fonts/fnt05.chr to ppl/fonts/fnt05.chr.old 
 05/14/16 20:47:15 Renamed existing ppl/fonts/fnt17.chr to ppl/fonts/fnt17.chr.old 
 05/14/16 20:47:15 Renamed existing ppl/fonts/fnt24.sym to ppl/fonts/fnt24.sym.old 
 05/14/16 20:47:15 Renamed existing ppl/fonts/fnt23.sym to ppl/fonts/fnt23.sym.old 
 05/14/16 20:47:15 Renamed existing ppl/fonts/fnt22.sym to ppl/fonts/fnt22.sym.old 
 05/14/16 20:47:15 Renamed existing ppl/fonts/fnt10.chr to ppl/fonts/fnt10.chr.old 
 05/14/16 20:47:17 Extracted bin/ 
 05/14/16 20:47:17 Extracted bin/ferret 
 05/14/16 20:47:17 Extracted bin/gksm2ps 
 05/14/16 20:47:17 Extracted bin/ferret_v6.96 
 05/14/16 20:47:17 Extracted ext_func/ 
 05/14/16 20:47:17 Extracted ext_func/libs/ 
 05/14/16 20:47:17 Extracted ext_func/libs/pass_thru.so 
 05/14/16 20:47:17 Extracted ext_func/libs/efstrings.so 
 05/14/16 20:47:17 Extracted ext_func/libs/storage.so 
 05/14/16 20:47:17 Extracted ext_func/libs/avet.so 
 05/14/16 20:47:17 Extracted ext_func/libs/percent_good_t.so 
 05/14/16 20:47:17 Extracted ext_func/libs/write_webrow_gwt.so 
 05/14/16 20:47:17 Extracted ext_func/libs/string_cat3.so 
 05/14/16 20:47:17 Extracted ext_func/libs/dates.so 
 05/14/16 20:47:17 Extracted ext_func/libs/subtract.so 
 05/14/16 20:47:17 Extracted ext_func/libs/string_arg.so 
 05/14/16 20:47:17 Extracted ext_func/libs/maxstrlen.so 
 05/14/16 20:47:17 Extracted ext_func/libs/strings_as_args.so 
 05/14/16 20:47:17 Extracted ext_func/libs/fft_amp.so 
 05/14/16 20:47:17 Extracted ext_func/libs/piecewise3.so 
 05/14/16 20:47:17 Extracted ext_func/libs/pick_a_string.so 
 05/14/16 20:47:17 Extracted ext_func/libs/appende.so 
 05/14/16 20:47:17 Extracted ext_func/libs/student_t_cutoff.so 
 05/14/16 20:47:17 Extracted ext_func/libs/fft_phas.so 
 05/14/16 20:47:17 Extracted ext_func/libs/separate.so 
 05/14/16 20:47:17 Extracted ext_func/libs/factorial.so 
 05/14/16 20:47:17 Extracted ext_func/libs/ffta_sample.so 
 05/14/16 20:47:17 Extracted ext_func/libs/string_len_sum.so 
 05/14/16 20:47:17 Extracted ext_func/libs/str_missing.so 
 05/14/16 20:47:17 Extracted ext_func/libs/separate_str.so 
 05/14/16 20:47:17 Extracted ext_func/libs/length_of_strings.so 
 05/14/16 20:47:17 Extracted ext_func/libs/sample_fast_i.so 
 05/14/16 20:47:17 Extracted ext_func/libs/lon_lat_time_string.so 
 05/14/16 20:47:17 Extracted ext_func/libs/add_9.so 
 05/14/16 20:47:17 Extracted ext_func/libs/pass_thru_string.so 
 05/14/16 20:47:17 Extracted lib/ 
 05/14/16 20:47:17 Extracted lib/toolsUI.jar 
 05/14/16 20:47:17 Extracted lib/threddsBrowser.jar 
 05/14/16 20:47:17 Extracted lib/toolsUI-4.1.jar 
 05/14/16 20:47:17 Extracted ppl/ 
 05/14/16 20:47:17 Extracted ppl/fonts/ 
 05/14/16 20:47:17 Extracted ppl/fonts/fnt29.sym 
 05/14/16 20:47:17 Extracted ppl/fonts/fnt31.chr 
 05/14/16 20:47:17 Extracted ppl/fonts/fnt21.sym 
 05/14/16 20:47:17 Extracted ppl/fonts/fnt25.sym 
 05/14/16 20:47:17 Extracted ppl/fonts/fnt03.chr 
 05/14/16 20:47:17 Extracted ppl/fonts/fnt14.chr 
 05/14/16 20:47:17 Extracted ppl/fonts/fnt32.chr 
 05/14/16 20:47:17 Extracted ppl/fonts/fnt09.chr 
 05/14/16 20:47:17 Extracted ppl/fonts/fnt28.sym 
 05/14/16 20:47:17 Extracted ppl/fonts/fnt16.chr 
 05/14/16 20:47:17 Extracted ppl/fonts/fnt20.sym 
 05/14/16 20:47:17 Extracted ppl/fonts/fnt33.sym 
 05/14/16 20:47:17 Extracted ppl/fonts/fnt13.chr 
 05/14/16 20:47:17 Extracted ppl/fonts/fnt30.sym 
 05/14/16 20:47:17 Extracted ppl/fonts/fnt02.chr 
 05/14/16 20:47:17 Extracted ppl/fonts/fnt01.chr 
 05/14/16 20:47:17 Extracted ppl/fonts/fnt27.sym 
 05/14/16 20:47:17 Extracted ppl/fonts/fnt15.chr 
 05/14/16 20:47:17 Extracted ppl/fonts/fnt06.chr 
 05/14/16 20:47:17 Extracted ppl/fonts/fondat.dat 
 05/14/16 20:47:17 Extracted ppl/fonts/fnt26.sym 
 05/14/16 20:47:17 Extracted ppl/fonts/fnt12.chr 
 05/14/16 20:47:17 Extracted ppl/fonts/fnt11.chr 
 05/14/16 20:47:17 Extracted ppl/fonts/fnt07.chr 
 05/14/16 20:47:17 Extracted ppl/fonts/fnt18.chr 
 05/14/16 20:47:17 Extracted ppl/fonts/fnt04.chr 
 05/14/16 20:47:17 Extracted ppl/fonts/fnt19.chr 
 05/14/16 20:47:17 Extracted ppl/fonts/fnt08.chr 
 05/14/16 20:47:17 Extracted ppl/fonts/fnt05.chr 
 05/14/16 20:47:17 Extracted ppl/fonts/fnt17.chr 
 05/14/16 20:47:17 Extracted ppl/fonts/fnt24.sym 
 05/14/16 20:47:17 Extracted ppl/fonts/fnt23.sym 
 05/14/16 20:47:17 Extracted ppl/fonts/fnt22.sym 
 05/14/16 20:47:17 Extracted ppl/fonts/fnt10.chr 
 05/14/16 20:48:27 Created /usr/local/ferret/ferret_paths.csh 
 05/14/16 20:48:27 Created /usr/local/ferret/ferret_paths.sh 
 05/14/16 20:48:27 Created /usr/local/ferret/ferret_paths 
 05/14/16 20:48:27     as a link to ferret_paths.sh 
 10/28/16 23:13:47 Created /root/ferret_paths.csh 
 10/28/16 23:13:47 Created /root/ferret_paths.sh 
 10/28/16 23:13:47 Created /root/ferret_paths 
 10/28/16 23:13:47     as a link to ferret_paths.sh 
 10/28/16 23:13:47 Unable to create /usr/local/ferret/bin/pyferret 
